…
    ## Rows: 1500 Columns: 4
    ## ── Column specification ──────────────────────────────────────────────
    ## Delimiter: ","
    ## dbl (4): LOSS, ALAE, LIMIT, CENSOR
    ## 
    ## ℹ Use `spec()` to retrieve the full column specification for this data.
    ## ℹ Specify the column types or set `show_col_types = FALSE` to quiet this message.

``` r
as_tibble(Loss.ALAE)
```

    ## # A tibble: 1,500 × 4
    ##     LOSS  ALAE   LIMIT CENSOR
    ##    <dbl> <dbl>   <dbl>  <dbl>
    ##  1    10  3806  500000      0
    ##  2    24  5658 1000000      0
    ##  3    45   321 1000000      0
    ##  4    51   305  500000      0
    ##  5    60   758  500000      0
    ##  6    74  8768 2000000      0
    ##  7    75  1805  500000      0
    ##  8    78    78  500000      0
    ##  9    87 46534  500000      0
    ## 10   100   489  300000      0
    ## # … with 1,490 more rows
…
